<?xml version="1.0" encoding="utf-8"?>
<!-- Generator: Adobe Illustrator 15.0.0, SVG Export Plug-In . SVG Version: 6.00 Build 0)  -->
<!DOCTYPE svg PUBLIC "-//W3C//DTD SVG 1.1//EN" "http://www.w3.org/Graphics/SVG/1.1/DTD/svg11.dtd">
<svg version="1.1" id="Layer_1" xmlns="http://www.w3.org/2000/svg" xmlns:xlink="http://www.w3.org/1999/xlink" x="0px" y="0px"
	 width="229.393px" height="74.761px" viewBox="0 0 229.393 74.761" enable-background="new 0 0 229.393 74.761"
	 xml:space="preserve">
<g>
	<path fill="#FFFFFF" d="M5.641,17.042L0,0h3.192l3.648,11.857c0.168,0.504,0.288,1.032,0.384,1.536
		c0.048-0.504,0.144-1.032,0.264-1.512L10.585,0h3l3.144,11.881c0.12,0.48,0.264,0.936,0.312,1.44
		c0.048-0.504,0.144-0.936,0.312-1.416L21.026,0h3.192l-5.665,17.042H15.29L12.241,6.265c-0.12-0.48-0.12-1.416-0.168-1.92
		c0,0.504,0,1.44-0.144,1.92l-3,10.777H5.641z"/>
	<path fill="#FFFFFF" d="M34.512,17.042V0h3.12v8.185h7.705V0h3.121v17.042h-3.121v-6.073h-7.705v6.073H34.512z"/>
	<path fill="#FFFFFF" d="M68.184,0l6.529,17.042h-3.289l-1.152-3.024H62.88l-1.152,3.024h-3.312L64.968,0H68.184z M63.936,11.257
		h5.304L66.6,4.249L63.936,11.257z"/>
	<path fill="#FFFFFF" d="M89.76,2.76v14.281h-3.145V2.76h-5.112V0h13.321v2.76H89.76z"/>
	<path fill="#FFFFFF" d="M126.648,14.281c1.32,0,1.872-0.456,1.872-1.44v-1.056h3.12v1.824c0,2.304-1.296,3.432-4.416,3.432h-4.992
		c-3.121,0-4.44-1.128-4.44-3.432V3.432c0-2.304,1.319-3.432,4.44-3.432h4.992c3.12,0,4.416,1.128,4.416,3.432v1.776h-3.12V4.2
		c0-0.984-0.552-1.44-1.872-1.44h-3.864c-1.32,0-1.872,0.456-1.872,1.44v8.641c0,0.984,0.552,1.44,1.872,1.44H126.648z"/>
	<path fill="#FFFFFF" d="M142.416,3.432c0-2.304,1.319-3.432,4.44-3.432h5.712c3.12,0,4.417,1.128,4.417,3.432v10.177
		c0,2.304-1.297,3.432-4.417,3.432h-5.712c-3.121,0-4.44-1.128-4.44-3.432V3.432z M145.536,4.2v8.641c0,0.984,0.552,1.44,1.872,1.44
		h4.584c1.32,0,1.872-0.456,1.872-1.44V4.2c0-0.984-0.552-1.44-1.872-1.44h-4.584C146.088,2.76,145.536,3.216,145.536,4.2z"/>
	<path fill="#FFFFFF" d="M178.944,12.745V0h3.12v13.753c0,2.184-1.368,3.288-4.32,3.288h-5.089c-2.952,0-4.344-1.104-4.344-3.288V0
		h3.12v12.745c0,1.08,0.647,1.536,2.04,1.536h3.433C178.32,14.281,178.944,13.825,178.944,12.745z"/>
	<path fill="#FFFFFF" d="M196.632,14.281h8.521l-0.433,2.76h-11.209V0h3.121V14.281z"/>
	<path fill="#FFFFFF" d="M215.135,0h8.545c3.961,0,5.713,1.344,5.713,4.152v8.737c0,2.808-1.752,4.152-5.713,4.152h-8.545V0z
		 M226.272,11.905V5.017c-0.048-1.56-0.937-2.256-2.977-2.256h-5.04v11.521h5.04C225.384,14.281,226.272,13.561,226.272,11.905z"/>
	<path fill="#FFFFFF" d="M34.104,45.841h-3.12V28.8h8.737c3.072,0,4.561,1.176,4.561,3.6v3.984c0,2.4-1.488,3.601-4.561,3.601
		h-5.617V45.841z M34.104,37.224h5.185c1.272,0,1.848-0.456,1.848-1.439V33c0-1.009-0.576-1.44-1.848-1.44h-5.185V37.224z"/>
	<path fill="#FFFFFF" d="M54.912,32.232c0-2.304,1.32-3.432,4.44-3.432h5.712c3.121,0,4.417,1.128,4.417,3.432v10.177
		c0,2.305-1.296,3.433-4.417,3.433h-5.712c-3.12,0-4.44-1.128-4.44-3.433V32.232z M58.032,33v8.641c0,0.984,0.552,1.44,1.873,1.44
		h4.584c1.32,0,1.873-0.456,1.873-1.44V33c0-0.984-0.552-1.44-1.873-1.44h-4.584C58.584,31.56,58.032,32.016,58.032,33z"/>
	<path fill="#FFFFFF" d="M84.191,37.777c-2.784-1.009-3.624-1.608-3.624-3.769v-2.185c0-2.04,1.272-3.023,3.96-3.023H89.4
		c2.76,0,4.081,0.983,4.081,3.023v1.992h-3.145v-1.008c0-0.864-0.576-1.248-1.704-1.248h-3.24c-1.224,0-1.704,0.36-1.704,1.248
		v0.648c0,0.84,0.36,1.032,1.392,1.416l5.017,1.8c2.544,0.912,3.672,1.464,3.672,3.217v2.952c0,1.992-1.272,3-3.937,3h-5.544
		c-2.736,0-4.008-1.008-4.008-3v-2.257h3.12v1.272c0,0.84,0.552,1.225,1.68,1.225h3.889c1.128,0,1.656-0.385,1.656-1.225V40.92
		c0-0.72-0.432-0.983-1.44-1.344L84.191,37.777z"/>
	<path fill="#FFFFFF" d="M108.048,37.777c-2.785-1.009-3.625-1.608-3.625-3.769v-2.185c0-2.04,1.272-3.023,3.96-3.023h4.872
		c2.761,0,4.08,0.983,4.08,3.023v1.992h-3.144v-1.008c0-0.864-0.576-1.248-1.705-1.248h-3.24c-1.224,0-1.704,0.36-1.704,1.248v0.648
		c0,0.84,0.36,1.032,1.392,1.416l5.017,1.8c2.544,0.912,3.672,1.464,3.672,3.217v2.952c0,1.992-1.271,3-3.936,3h-5.544
		c-2.736,0-4.008-1.008-4.008-3v-2.257h3.12v1.272c0,0.84,0.552,1.225,1.68,1.225h3.889c1.128,0,1.656-0.385,1.656-1.225V40.92
		c0-0.72-0.432-0.983-1.44-1.344L108.048,37.777z"/>
	<path fill="#FFFFFF" d="M128.591,45.841V28.8h3.121v17.041H128.591z"/>
	<path fill="#FFFFFF" d="M143.23,28.8h7.777c3.24,0,4.776,1.128,4.776,3.432v2.208c0,1.32-0.552,2.185-1.801,2.448
		c1.849,0.024,2.929,0.792,2.929,2.736v2.784c0,2.305-1.488,3.433-4.656,3.433h-9.025V28.8z M146.352,35.497h4.368
		c1.344,0,1.92-0.528,1.92-1.416v-1.057c0-1.008-0.696-1.464-2.28-1.464h-4.008V35.497z M146.352,43.082h5.304
		c1.465,0,2.137-0.456,2.137-1.465v-1.8c0-1.057-0.721-1.561-2.305-1.561h-5.136V43.082z"/>
	<path fill="#FFFFFF" d="M170.928,43.082h8.521l-0.433,2.76h-11.209V28.8h3.121V43.082z"/>
	<path fill="#FFFFFF" d="M191.592,45.841v-6.457L185.159,28.8h3.216l4.177,6.648c0.384,0.647,0.528,0.96,0.6,1.392
		c0.048-0.432,0.145-0.744,0.553-1.368l4.08-6.672h3.24l-6.312,10.513v6.528H191.592z"/>
	<path fill="#FFFFFF" d="M17.856,65.568h6.625v5.833c0,2.136-1.224,3.24-4.2,3.24h-5.665c-2.712,0-4.152-1.032-4.152-3.192V60.84
		c0-2.16,1.32-3.24,4.057-3.24h5.856c2.784,0,4.152,1.056,4.152,3.191v1.824h-3.121V61.8c0-1.009-0.576-1.44-1.848-1.44h-4.152
		c-1.272,0-1.824,0.456-1.824,1.488v8.593c0,1.008,0.6,1.44,1.873,1.44h3.984c1.344,0,1.92-0.456,1.92-1.417v-2.136h-3.937
		L17.856,65.568z"/>
	<path fill="#FFFFFF" d="M35.543,61.032c0-2.304,1.32-3.432,4.44-3.432h5.712c3.121,0,4.417,1.128,4.417,3.432v10.177
		c0,2.305-1.296,3.433-4.417,3.433h-5.712c-3.12,0-4.44-1.128-4.44-3.433V61.032z M38.664,61.8v8.641c0,0.984,0.552,1.44,1.873,1.44
		h4.584c1.32,0,1.873-0.456,1.873-1.44V61.8c0-0.984-0.552-1.44-1.873-1.44h-4.584C39.216,60.36,38.664,60.816,38.664,61.8z"/>
	<path fill="#FFFFFF" d="M78.72,74.641L73.08,57.6h3.192l3.648,11.856c0.168,0.504,0.288,1.032,0.384,1.536
		c0.048-0.504,0.144-1.032,0.264-1.512L83.665,57.6h3l3.144,11.881c0.12,0.479,0.264,0.936,0.312,1.439
		c0.048-0.504,0.144-0.936,0.312-1.416L94.105,57.6h3.192l-5.665,17.041h-3.264l-3.048-10.777c-0.12-0.479-0.12-1.416-0.168-1.92
		c0,0.504,0,1.44-0.144,1.92l-3,10.777H78.72z"/>
	<path fill="#FFFFFF" d="M107.591,57.6h8.929c2.903,0,4.296,1.08,4.296,3.24v4.752c0,1.992-1.2,3.072-3.648,3.217l4.944,5.832h-3.6
		l-4.873-5.809h-2.928v5.809h-3.12V57.6z M110.711,66.048h5.016c1.32,0,1.944-0.432,1.944-1.464v-2.736
		c0-1.032-0.624-1.488-1.944-1.488h-5.016V66.048z"/>
	<path fill="#FFFFFF" d="M131.903,61.032c0-2.304,1.319-3.432,4.44-3.432h5.712c3.12,0,4.416,1.128,4.416,3.432v10.177
		c0,2.305-1.296,3.433-4.416,3.433h-5.712c-3.121,0-4.44-1.128-4.44-3.433V61.032z M135.023,61.8v8.641
		c0,0.984,0.552,1.44,1.872,1.44h4.584c1.32,0,1.872-0.456,1.872-1.44V61.8c0-0.984-0.552-1.44-1.872-1.44h-4.584
		C135.575,60.36,135.023,60.816,135.023,61.8z"/>
	<path fill="#FFFFFF" d="M157.871,74.641V57.6h3.121l7.32,10.152c0.36,0.504,0.576,1.057,0.792,1.584V57.6h3.12v17.041h-3.12
		l-7.032-9.648c-0.48-0.673-0.792-1.417-1.08-2.137v11.785H157.871z"/>
	<path fill="#FFFFFF" d="M191.016,65.568h6.624v5.833c0,2.136-1.224,3.24-4.2,3.24h-5.664c-2.713,0-4.152-1.032-4.152-3.192V60.84
		c0-2.16,1.319-3.24,4.056-3.24h5.856c2.784,0,4.152,1.056,4.152,3.191v1.824h-3.12V61.8c0-1.009-0.576-1.44-1.848-1.44h-4.152
		c-1.272,0-1.824,0.456-1.824,1.488v8.593c0,1.008,0.6,1.44,1.872,1.44h3.984c1.344,0,1.92-0.456,1.92-1.417v-2.136h-3.937
		L191.016,65.568z"/>
	<path fill="#FFFFFF" d="M216.72,67.729c-1.009,0.359-1.416,0.624-1.416,1.344v1.992h-3.121v-2.809c0-1.776,1.129-2.256,2.473-2.76
		l1.632-0.624c1.009-0.385,1.345-0.648,1.345-1.345v-1.92c0-0.888-0.48-1.248-1.704-1.248h-3.217c-1.176,0-1.728,0.384-1.728,1.248
		V63h-3.121v-2.377c0-2.04,1.32-3.023,4.057-3.023h4.896c2.688,0,3.96,0.983,3.96,3.023v3.192c0,2.137-0.863,2.713-2.76,3.433
		L216.72,67.729z M212.087,71.641h3.288v3.12h-3.288V71.641z"/>
</g>
</svg>
