<?xml version="1.0" encoding="utf-8"?>
<!-- Generator: Adobe Illustrator 15.0.0, SVG Export Plug-In . SVG Version: 6.00 Build 0)  -->
<!DOCTYPE svg PUBLIC "-//W3C//DTD SVG 1.1//EN" "http://www.w3.org/Graphics/SVG/1.1/DTD/svg11.dtd">
<svg version="1.1" id="Layer_1" xmlns="http://www.w3.org/2000/svg" xmlns:xlink="http://www.w3.org/1999/xlink" x="0px" y="0px"
	 width="166.988px" height="15.21px" viewBox="0 0 166.988 15.21" enable-background="new 0 0 166.988 15.21" xml:space="preserve">
<g>
	<path fill="#FFFFFF" d="M9.491,11.461v-1.457c0-0.792-0.665-1.2-1.585-1.2H3.771V6.341h3.514c1.007,0,1.435-0.45,1.435-1.178V3.749
		c0-0.878-0.471-1.286-1.671-1.286H4.97c-1.178,0-1.671,0.407-1.671,1.286v0.729H0.514V3.063C0.514,1.007,1.692,0,4.478,0h3.278
		c2.635,0,3.771,0.964,3.771,2.892v2.957c0,1.114-0.6,1.585-1.35,1.714c1.178,0.085,2.121,0.686,2.121,1.928v2.657
		c0,2.057-1.178,3.063-3.942,3.063H3.963C1.178,15.21,0,14.204,0,12.147V10.69h2.785v0.771c0,0.878,0.493,1.285,1.671,1.285h3.363
		C9.019,12.747,9.491,12.339,9.491,11.461z"/>
	<path fill="#FFFFFF" d="M37.349,7.626h6.341l-0.364,2.464h-5.977v5.12h-2.785V0h10.733l-0.386,2.463h-7.562V7.626z"/>
	<path fill="#FFFFFF" d="M54.364,0h7.97c2.592,0,3.834,0.964,3.834,2.892v4.242c0,1.778-1.071,2.742-3.256,2.871l4.414,5.206h-3.214
		l-4.349-5.185h-2.614v5.185h-2.785V0z M57.149,7.541h4.478c1.178,0,1.735-0.386,1.735-1.307V3.792c0-0.921-0.557-1.329-1.735-1.329
		h-4.478V7.541z"/>
	<path fill="#FFFFFF" d="M76.178,15.21V0h2.785v15.21H76.178z"/>
	<path fill="#FFFFFF" d="M92.034,7.626h6.662l-0.364,2.464h-6.298v2.656h8.141l-0.364,2.464H89.249V0h10.904l-0.386,2.463h-7.733
		V7.626z"/>
	<path fill="#FFFFFF" d="M109.499,15.21V0h2.785l6.533,9.062c0.322,0.45,0.515,0.942,0.707,1.414V0h2.785v15.21h-2.785l-6.276-8.612
		c-0.429-0.6-0.707-1.264-0.964-1.907V15.21H109.499z"/>
	<path fill="#FFFFFF" d="M132.6,0h7.626c3.535,0,5.1,1.2,5.1,3.706v7.798c0,2.507-1.564,3.706-5.1,3.706H132.6V0z M142.54,10.626
		V4.478c-0.043-1.393-0.836-2.014-2.657-2.014h-4.499v10.283h4.499C141.747,12.747,142.54,12.104,142.54,10.626z"/>
	<path fill="#FFFFFF" d="M158.44,8.012c-2.485-0.9-3.235-1.436-3.235-3.363v-1.95c0-1.821,1.136-2.699,3.535-2.699h4.349
		c2.464,0,3.643,0.878,3.643,2.699v1.778h-2.807v-0.9c0-0.771-0.514-1.114-1.521-1.114h-2.892c-1.093,0-1.521,0.321-1.521,1.114
		v0.578c0,0.75,0.321,0.921,1.243,1.264l4.478,1.607c2.271,0.814,3.277,1.307,3.277,2.871v2.635c0,1.777-1.136,2.678-3.514,2.678
		h-4.948c-2.442,0-3.578-0.9-3.578-2.678v-2.014h2.785v1.135c0,0.75,0.493,1.093,1.5,1.093h3.471c1.007,0,1.478-0.343,1.478-1.093
		v-0.835c0-0.644-0.386-0.878-1.285-1.2L158.44,8.012z"/>
</g>
</svg>
